{
  "data": [
    {
      "id": 2,
      "title": "Patched Todo Title",
      "description": "Add comprehensive unit tests for the new user management features",
      "completed": true,
      "userId": 1,
      "createdAt": "2026-03-23T00:00:05.436Z",
      "updatedAt": "2026-03-23T16:58:57.384Z",
      "user": {
        "id": 1,
        "name": "Updated User",
        "username": "updateduser"
      }
    },
    {
      "id": 4,
      "title": "Deploy to staging environment",
      "description": "Deploy the latest changes to the staging environment for testing",
      "completed": true,
      "userId": 1,
      "createdAt": "2026-03-23T00:00:05.436Z",
      "updatedAt": "2026-03-23T00:00:05.436Z",
      "user": {
        "id": 1,
        "name": "Updated User",
        "username": "updateduser"
      }
    },
    {
      "id": 6,
      "title": "Code review for team members",
      "description": "Conduct thorough code reviews for the latest feature implementations",
      "completed": true,
      "userId": 1,
      "createdAt": "2026-03-23T00:00:05.436Z",
      "updatedAt": "2026-03-23T00:00:05.436Z",
      "user": {
        "id": 1,
        "name": "Updated User",
        "username": "updateduser"
      }
    },
    {
      "id": 9,
      "title": "Implement new feature",
      "description": "Implement the user notification system as per the requirements",
      "completed": true,
      "userId": 1,
      "createdAt": "2026-03-23T00:00:05.449Z",
      "updatedAt": "2026-03-23T00:00:05.449Z",
      "user": {
        "id": 1,
        "name": "Updated User",
        "username": "updateduser"
      }
    },
    {
      "id": 11,
      "title": "Refactor legacy code",
      "description": "Refactor the old payment processing module to use modern patterns",
      "completed": true,
      "userId": 1,
      "createdAt": "2026-03-23T00:00:05.452Z",
      "updatedAt": "2026-03-23T00:00:05.452Z",
      "user": {
        "id": 1,
        "name": "Updated User",
        "username": "updateduser"
      }
    },
    {
      "id": 28,
      "title": "Optimize database queries",
      "description": "Analyze and optimize slow database queries for better performance",
      "completed": true,
      "userId": 6,
      "createdAt": "2026-03-23T00:00:05.666Z",
      "updatedAt": "2026-03-23T00:00:05.666Z",
      "user": {
        "id": 6,
        "name": "Jane Smith",
        "username": "janesmith"
      }
    },
    {
      "id": 33,
      "title": "Fix security vulnerabilities",
      "description": "Address security issues identified in the latest security audit",
      "completed": true,
      "userId": 6,
      "createdAt": "2026-03-23T00:00:05.670Z",
      "updatedAt": "2026-03-23T00:00:05.670Z",
      "user": {
        "id": 6,
        "name": "Jane Smith",
        "username": "janesmith"
      }
    },
    {
      "id": 37,
      "title": "Update SSL certificates",
      "description": "Renew and update SSL certificates for all production domains",
      "completed": true,
      "userId": 6,
      "createdAt": "2026-03-23T00:00:05.670Z",
      "updatedAt": "2026-03-23T00:00:05.670Z",
      "user": {
        "id": 6,
        "name": "Jane Smith",
        "username": "janesmith"
      }
    },
    {
      "id": 39,
      "title": "Plan next sprint",
      "description": "Plan and prioritize tasks for the upcoming development sprint",
      "completed": true,
      "userId": 6,
      "createdAt": "2026-03-23T00:00:05.670Z",
      "updatedAt": "2026-03-23T00:00:05.670Z",
      "user": {
        "id": 6,
        "name": "Jane Smith",
        "username": "janesmith"
      }
    },
    {
      "id": 40,
      "title": "Attend team meeting",
      "description": "Participate in the weekly team meeting to discuss progress and blockers",
      "completed": true,
      "userId": 6,
      "createdAt": "2026-03-23T00:00:05.670Z",
      "updatedAt": "2026-03-23T00:00:05.670Z",
      "user": {
        "id": 6,
        "name": "Jane Smith",
        "username": "janesmith"
      }
    }
  ],
  "pagination": {
    "page": 1,
    "limit": 10,
    "total": 62,
    "totalPages": 7,
    "hasNext": true,
    "hasPrev": false
  }
}