{
  "data": [
    {
      "id": 2,
      "title": "Patched Todo Title",
      "description": "Add comprehensive unit tests for the new user management features",
      "completed": true,
      "userId": 1,
      "createdAt": "2026-03-23T00:00:05.436Z",
      "updatedAt": "2026-03-23T16:30:45.135Z",
      "user": {
        "id": 1,
        "name": "Updated User",
        "username": "updateduser"
      }
    },
    {
      "id": 4,
      "title": "Deploy to staging environment",
      "description": "Deploy the latest changes to the staging environment for testing",
      "completed": true,
      "userId": 1,
      "createdAt": "2026-03-23T00:00:05.436Z",
      "updatedAt": "2026-03-23T00:00:05.436Z",
      "user": {
        "id": 1,
        "name": "Updated User",
        "username": "updateduser"
      }
    },
    {
      "id": 6,
      "title": "Code review for team members",
      "description": "Conduct thorough code reviews for the latest feature implementations",
      "completed": true,
      "userId": 1,
      "createdAt": "2026-03-23T00:00:05.436Z",
      "updatedAt": "2026-03-23T00:00:05.436Z",
      "user": {
        "id": 1,
        "name": "Updated User",
        "username": "updateduser"
      }
    },
    {
      "id": 9,
      "title": "Implement new feature",
      "description": "Implement the user notification system as per the requirements",
      "completed": true,
      "userId": 1,
      "createdAt": "2026-03-23T00:00:05.449Z",
      "updatedAt": "2026-03-23T00:00:05.449Z",
      "user": {
        "id": 1,
        "name": "Updated User",
        "username": "updateduser"
      }
    },
    {
      "id": 11,
      "title": "Refactor legacy code",
      "description": "Refactor the old payment processing module to use modern patterns",
      "completed": true,
      "userId": 1,
      "createdAt": "2026-03-23T00:00:05.452Z",
      "updatedAt": "2026-03-23T00:00:05.452Z",
      "user": {
        "id": 1,
        "name": "Updated User",
        "username": "updateduser"
      }
    },
    {
      "id": 16,
      "title": "Backup database",
      "description": "Create a full backup of the production database before major updates",
      "completed": true,
      "userId": 1,
      "createdAt": "2026-03-23T00:00:05.453Z",
      "updatedAt": "2026-03-23T00:00:05.453Z",
      "user": {
        "id": 1,
        "name": "Updated User",
        "username": "updateduser"
      }
    },
    {
      "id": 21,
      "title": "Review pull requests",
      "description": "Review and provide feedback on pending pull requests from team members",
      "completed": true,
      "userId": 6,
      "createdAt": "2026-03-23T00:00:05.660Z",
      "updatedAt": "2026-03-23T00:00:05.660Z",
      "user": {
        "id": 6,
        "name": "Jane Smith",
        "username": "janesmith"
      }
    },
    {
      "id": 22,
      "title": "Update documentation",
      "description": "Update API documentation and README files with latest changes",
      "completed": true,
      "userId": 6,
      "createdAt": "2026-03-23T00:00:05.660Z",
      "updatedAt": "2026-03-23T00:00:05.660Z",
      "user": {
        "id": 6,
        "name": "Jane Smith",
        "username": "janesmith"
      }
    },
    {
      "id": 23,
      "title": "Fix bug in authentication module",
      "description": "Investigate and fix the reported authentication issue in the login system",
      "completed": true,
      "userId": 6,
      "createdAt": "2026-03-23T00:00:05.661Z",
      "updatedAt": "2026-03-23T00:00:05.661Z",
      "user": {
        "id": 6,
        "name": "Jane Smith",
        "username": "janesmith"
      }
    },
    {
      "id": 24,
      "title": "Write unit tests",
      "description": "Add comprehensive unit tests for the new user management features",
      "completed": true,
      "userId": 6,
      "createdAt": "2026-03-23T00:00:05.662Z",
      "updatedAt": "2026-03-23T00:00:05.662Z",
      "user": {
        "id": 6,
        "name": "Jane Smith",
        "username": "janesmith"
      }
    }
  ],
  "pagination": {
    "page": 1,
    "limit": 10,
    "total": 74,
    "totalPages": 8,
    "hasNext": true,
    "hasPrev": false
  }
}